{
    "grammar": "data/maconnotron/grammaire_maconnique.json",
    "index": "index_maconnotron.html",
    "terminals": {
        "NOM": "data/maconnotron/nom.txt",
        "Q1": "data/maconnotron/q1.txt",
        "Q2": "data/maconnotron/q2.txt"
    }
}
