{
    "grammar": "data/coulomb/grammaire_coulomb.json",
    "index": "index_coulomb.html",
    "terminals": {
        "DEBUT": "data/coulomb/debut.txt",
        "FIN": "data/coulomb/fin.txt",
        "INTRODUCTION": "data/coulomb/introduction.txt",
        "INTERJECTION": "data/coulomb/interjection.txt",
        "CONCLUSION": "data/coulomb/conclusion.txt"
    }
}
