{
    "PhrasePrincipale": [
        [
            "|FIN||CONCLUSION|.",
            "|FIN||CONCLUSION||INTERJECTION|"
        ],
        [
            0.2,
            0.8
        ]
    ],
    "PhraseComplete": [
        [
            "|PhrasePrincipale|",
            "|DEBUT| |PhrasePrincipale|"
        ],
        [
            0.2,
            0.8
        ]
    ],
    "ROOT": [
        [
            "|PhraseComplete|",
            "|INTRODUCTION| |PhraseComplete|",
            "|INTRODUCTION| |INTRODUCTION| |PhraseComplete|"
        ],
        [
            0.1,
            0.8,
            0.1
        ]
    ]
}
